The case for more GIS in front-line diplomacy
…
## $df_sub
## # A tibble: 43 x 15
##    send_country_iso send_country send_lon send_lat post_country_iso post_country
##    <chr>            <chr>           <dbl>    <dbl> <chr>            <chr>       
##  1 ARG              Argentina      -63.6    -38.4  IRN              Iran Islami
##  2 AUS              Australia      134.     -25.3  IRN              Iran Islami
##  3 AUT              Austria         14.6     47.5  IRN              Iran Islami
##  4 BGD              Bangladesh      90.4     23.7  IRN              Iran Islami
##  5 BEL              Belgium          4.47    50.5  IRN              Iran Islami
##  6 BRA              Brazil         -51.9    -14.2  IRN              Iran Islami
##  7 BRN              Brunei Daru   115.       4.54 IRN              Iran Islami
##  8 CHN              China          104.      35.9  IRN              Iran Islami
##  9 CZE              Czech Repub    15.5     49.8  IRN              Iran Islami
## 10 DNK              Denmark          9.50    56.3  IRN              Iran Islami
## #  with 33 more rows, and 9 more variables: post_city_country <chr>,
## #   post_city <chr>, post_city_lon <dbl>, post_city_lat <dbl>, post_type <chr>,
## #   post_title <chr>, full_geo_query <chr>, exact_post_lon <dbl>,
## #   latexact_post_lat <dbl>
## 
## $map
## 
## $box_plot
## $box_plot$stats
…
## 
## $box_plot$group
## [1] 1
## 
## $box_plot$names
## [1] ""
## 
## 
## $k_plot
## NULL
## 
## $f_cluster_map
## 
## $f_cluster_df
## # A tibble: 42 x 15
##    send_country_iso send_country send_lon send_lat post_country_iso post_country
##    <chr>            <chr>           <dbl>    <dbl> <chr>            <chr>       
##  1 ARG              Argentina      -63.6    -38.4  IRN              Iran Islami
##  2 AUS              Australia      134.     -25.3  IRN              Iran Islami
##  3 AUT              Austria         14.6     47.5  IRN              Iran Islami
##  4 BGD              Bangladesh      90.4     23.7  IRN              Iran Islami
##  5 BEL              Belgium          4.47    50.5  IRN              Iran Islami
##  6 BRA              Brazil         -51.9    -14.2  IRN              Iran Islami
##  7 BRN              Brunei Daru   115.       4.54 IRN              Iran Islami
##  8 CHN              China          104.      35.9  IRN              Iran Islami
##  9 CZE              Czech Repub    15.5     49.8  IRN              Iran Islami
## 10 DNK              Denmark          9.50    56.3  IRN              Iran Islami
## #  with 32 more rows, and 9 more variables: post_city_country <chr>,
## #   post_city <chr>, post_city_lon <dbl>, post_city_lat <dbl>, post_type <chr>,
## #   post_title <chr>, full_geo_query <chr>, exact_post_lon <dbl>,
## #   latexact_post_lat <dbl>
…
## $df_sub
## # A tibble: 69 x 15
##    send_country_iso send_country send_lon send_lat post_country_iso post_country
##    <chr>            <chr>           <dbl>    <dbl> <chr>            <chr>       
##  1 ARG              Argentina      -63.6    -38.4  GBR              United King
##  2 ARG              Argentina      -63.6    -38.4  GBR              United King
##  3 AUS              Australia      134.     -25.3  GBR              United King
##  4 AUT              Austria         14.6     47.5  GBR              United King
##  5 BGD              Bangladesh      90.4     23.7  GBR              United King
##  6 BEL              Belgium          4.47    50.5  GBR              United King
##  7 BRA              Brazil         -51.9    -14.2  GBR              United King
##  8 BRA              Brazil         -51.9    -14.2  GBR              United King
##  9 BRA              Brazil         -51.9    -14.2  GBR              United King
## 10 BRN              Brunei Daru   115.       4.54 GBR              United King
## #  with 59 more rows, and 9 more variables: post_city_country <chr>,
## #   post_city <chr>, post_city_lon <dbl>, post_city_lat <dbl>, post_type <chr>,
## #   post_title <chr>, full_geo_query <chr>, exact_post_lon <dbl>,
## #   latexact_post_lat <dbl>
## 
## $map
## 
## $box_plot
## $box_plot$stats
…
## 
## $box_plot$group
## [1] 1 1 1 1
## 
## $box_plot$names
## [1] ""
## 
## 
## $k_plot
## NULL
## 
## $f_cluster_map
## 
## $f_cluster_df
## # A tibble: 65 x 15
##    send_country_iso send_country send_lon send_lat post_country_iso post_country
##    <chr>            <chr>           <dbl>    <dbl> <chr>            <chr>       
##  1 ARG              Argentina      -63.6    -38.4  GBR              United King
##  2 ARG              Argentina      -63.6    -38.4  GBR              United King
##  3 AUS              Australia      134.     -25.3  GBR              United King
##  4 AUT              Austria         14.6     47.5  GBR              United King
##  5 BGD              Bangladesh      90.4     23.7  GBR              United King
##  6 BEL              Belgium          4.47    50.5  GBR              United King
##  7 BRA              Brazil         -51.9    -14.2  GBR              United King
##  8 BRA              Brazil         -51.9    -14.2  GBR              United King
##  9 BRA              Brazil         -51.9    -14.2  GBR              United King
## 10 BRN              Brunei Daru   115.       4.54 GBR              United King
## #  with 55 more rows, and 9 more variables: post_city_country <chr>,
## #   post_city <chr>, post_city_lon <dbl>, post_city_lat <dbl>, post_type <chr>,
## #   post_title <chr>, full_geo_query <chr>, exact_post_lon <dbl>,
## #   latexact_post_lat <dbl>
…
## $df_sub
## # A tibble: 46 x 15
##    send_country_iso send_country send_lon send_lat post_country_iso post_country
##    <chr>            <chr>           <dbl>    <dbl> <chr>            <chr>       
##  1 ARG              Argentina      -63.6    -38.4  PHL              Philippines 
##  2 AUS              Australia      134.     -25.3  PHL              Philippines 
##  3 AUT              Austria         14.6     47.5  PHL              Philippines 
##  4 BGD              Bangladesh      90.4     23.7  PHL              Philippines 
##  5 BEL              Belgium          4.47    50.5  PHL              Philippines 
##  6 BRA              Brazil         -51.9    -14.2  PHL              Philippines 
##  7 BRN              Brunei Daru   115.       4.54 PHL              Philippines 
##  8 KHM              Cambodia       105.      12.6  PHL              Philippines 
##  9 CAN              Canada        -106.      56.1  PHL              Philippines 
## 10 CHL              Chile          -71.5    -35.7  PHL              Philippines 
## #  with 36 more rows, and 9 more variables: post_city_country <chr>,
## #   post_city <chr>, post_city_lon <dbl>, post_city_lat <dbl>, post_type <chr>,
## #   post_title <chr>, full_geo_query <chr>, exact_post_lon <dbl>,
## #   latexact_post_lat <dbl>
## 
## $map
## 
## $box_plot
## $box_plot$stats
…
## 
## $box_plot$group
## [1] 1 1 1 1 1 1 1 1 1
## 
## $box_plot$names
## [1] ""
## 
## 
## $k_plot
## NULL
## 
## $f_cluster_map
## 
## $f_cluster_df
## # A tibble: 37 x 15
##    send_country_iso send_country send_lon send_lat post_country_iso post_country
##    <chr>            <chr>           <dbl>    <dbl> <chr>            <chr>       
##  1 ARG              Argentina      -63.6    -38.4  PHL              Philippines 
##  2 AUS              Australia      134.     -25.3  PHL              Philippines 
##  3 BGD              Bangladesh      90.4     23.7  PHL              Philippines 
##  4 BEL              Belgium          4.47    50.5  PHL              Philippines 
##  5 BRA              Brazil         -51.9    -14.2  PHL              Philippines 
##  6 BRN              Brunei Daru   115.       4.54 PHL              Philippines 
##  7 KHM              Cambodia       105.      12.6  PHL              Philippines 
##  8 CAN              Canada        -106.      56.1  PHL              Philippines 
##  9 CHL              Chile          -71.5    -35.7  PHL              Philippines 
## 10 CHN              China          104.      35.9  PHL              Philippines 
## #  with 27 more rows, and 9 more variables: post_city_country <chr>,
## #   post_city <chr>, post_city_lon <dbl>, post_city_lat <dbl>, post_type <chr>,
## #   post_title <chr>, full_geo_query <chr>, exact_post_lon <dbl>,
## #   latexact_post_lat <dbl>
…
## $df_sub
## # A tibble: 42 x 15
##    send_country_iso send_country send_lon send_lat post_country_iso post_country
##    <chr>            <chr>           <dbl>    <dbl> <chr>            <chr>       
##  1 ARG              Argentina      -63.6     -38.4 KEN              Kenya       
##  2 AUS              Australia      134.      -25.3 KEN              Kenya       
##  3 AUT              Austria         14.6      47.5 KEN              Kenya       
##  4 BGD              Bangladesh      90.4      23.7 KEN              Kenya       
##  5 BEL              Belgium          4.47     50.5 KEN              Kenya       
##  6 BRA              Brazil         -51.9     -14.2 KEN              Kenya       
##  7 CAN              Canada        -106.       56.1 KEN              Kenya       
##  8 CHL              Chile          -71.5     -35.7 KEN              Kenya       
##  9 CHN              China          104.       35.9 KEN              Kenya       
## 10 CZE              Czech Repub    15.5      49.8 KEN              Kenya       
## #  with 32 more rows, and 9 more variables: post_city_country <chr>,
## #   post_city <chr>, post_city_lon <dbl>, post_city_lat <dbl>, post_type <chr>,
## #   post_title <chr>, full_geo_query <chr>, exact_post_lon <dbl>,
## #   latexact_post_lat <dbl>
## 
## $map
## 
## $box_plot
## $box_plot$stats
…
## 
## $box_plot$group
## [1] 1 1 1
## 
## $box_plot$names
## [1] ""
## 
## 
## $k_plot
## NULL
## 
## $f_cluster_map
## 
## $f_cluster_df
## # A tibble: 39 x 15
##    send_country_iso send_country send_lon send_lat post_country_iso post_country
##    <chr>            <chr>           <dbl>    <dbl> <chr>            <chr>       
##  1 ARG              Argentina      -63.6     -38.4 KEN              Kenya       
##  2 AUS              Australia      134.      -25.3 KEN              Kenya       
##  3 AUT              Austria         14.6      47.5 KEN              Kenya       
##  4 BGD              Bangladesh      90.4      23.7 KEN              Kenya       
##  5 BEL              Belgium          4.47     50.5 KEN              Kenya       
##  6 BRA              Brazil         -51.9     -14.2 KEN              Kenya       
##  7 CAN              Canada        -106.       56.1 KEN              Kenya       
##  8 CHN              China          104.       35.9 KEN              Kenya       
##  9 CZE              Czech Repub    15.5      49.8 KEN              Kenya       
## 10 DNK              Denmark          9.50     56.3 KEN              Kenya       
## #  with 29 more rows, and 9 more variables: post_city_country <chr>,
## #   post_city <chr>, post_city_lon <dbl>, post_city_lat <dbl>, post_type <chr>,
## #   post_title <chr>, full_geo_query <chr>, exact_post_lon <dbl>,
## #   latexact_post_lat <dbl>
…
## $df_sub
## # A tibble: 50 x 15
##    send_country_iso send_country send_lon send_lat post_country_iso post_country
##    <chr>            <chr>           <dbl>    <dbl> <chr>            <chr>       
##  1 ARG              Argentina      -63.6    -38.4  SGP              Singapore   
##  2 AUS              Australia      134.     -25.3  SGP              Singapore   
##  3 AUT              Austria         14.6     47.5  SGP              Singapore   
##  4 BGD              Bangladesh      90.4     23.7  SGP              Singapore   
##  5 BEL              Belgium          4.47    50.5  SGP              Singapore   
##  6 BRA              Brazil         -51.9    -14.2  SGP              Singapore   
##  7 BRN              Brunei Daru   115.       4.54 SGP              Singapore   
##  8 KHM              Cambodia       105.      12.6  SGP              Singapore   
##  9 CAN              Canada        -106.      56.1  SGP              Singapore   
## 10 CHL              Chile          -71.5    -35.7  SGP              Singapore   
## #  with 40 more rows, and 9 more variables: post_city_country <chr>,
## #   post_city <chr>, post_city_lon <dbl>, post_city_lat <dbl>, post_type <chr>,
## #   post_title <chr>, full_geo_query <chr>, exact_post_lon <dbl>,
## #   latexact_post_lat <dbl>
## 
## $map
## 
## $box_plot
## $box_plot$stats
…
## 
## $box_plot$group
## numeric(0)
## 
## $box_plot$names
## [1] ""
## 
## 
## $k_plot
## NULL
## 
## $f_cluster_map
## 
## $f_cluster_df
## # A tibble: 50 x 15
##    send_country_iso send_country send_lon send_lat post_country_iso post_country
##    <chr>            <chr>           <dbl>    <dbl> <chr>            <chr>       
##  1 ARG              Argentina      -63.6    -38.4  SGP              Singapore   
##  2 AUS              Australia      134.     -25.3  SGP              Singapore   
##  3 AUT              Austria         14.6     47.5  SGP              Singapore   
##  4 BGD              Bangladesh      90.4     23.7  SGP              Singapore   
##  5 BEL              Belgium          4.47    50.5  SGP              Singapore   
##  6 BRA              Brazil         -51.9    -14.2  SGP              Singapore   
##  7 BRN              Brunei Daru   115.       4.54 SGP              Singapore   
##  8 KHM              Cambodia       105.      12.6  SGP              Singapore   
##  9 CAN              Canada        -106.      56.1  SGP              Singapore   
## 10 CHL              Chile          -71.5    -35.7  SGP              Singapore   
## #  with 40 more rows, and 9 more variables: post_city_country <chr>,
## #   post_city <chr>, post_city_lon <dbl>, post_city_lat <dbl>, post_type <chr>,
## #   post_title <chr>, full_geo_query <chr>, exact_post_lon <dbl>,
## #   latexact_post_lat <dbl>
…
## $df_sub
## # A tibble: 60 x 15
##    send_country_iso send_country send_lon send_lat post_country_iso post_country
##    <chr>            <chr>           <dbl>    <dbl> <chr>            <chr>       
##  1 ARG              Argentina      -63.6    -38.4  IND              India       
##  2 AUS              Australia      134.     -25.3  IND              India       
##  3 AUT              Austria         14.6     47.5  IND              India       
##  4 BGD              Bangladesh      90.4     23.7  IND              India       
##  5 BEL              Belgium          4.47    50.5  IND              India       
##  6 BTN              Bhutan          90.4     27.5  IND              India       
##  7 BRA              Brazil         -51.9    -14.2  IND              India       
##  8 BRN              Brunei Daru   115.       4.54 IND              India       
##  9 KHM              Cambodia       105.      12.6  IND              India       
## 10 CAN              Canada        -106.      56.1  IND              India       
## #  with 50 more rows, and 9 more variables: post_city_country <chr>,
## #   post_city <chr>, post_city_lon <dbl>, post_city_lat <dbl>, post_type <chr>,
## #   post_title <chr>, full_geo_query <chr>, exact_post_lon <dbl>,
## #   latexact_post_lat <dbl>
## 
## $map
## 
## $box_plot
## $box_plot$stats
…
## 
## $box_plot$group
##  [1] 1 1 1 1 1 1 1 1 1 1 1 1 1
## 
## $box_plot$names
## [1] ""
## 
## 
## $k_plot
## NULL
## 
## $f_cluster_map
## 
## $f_cluster_df
## # A tibble: 47 x 15
##    send_country_iso send_country send_lon send_lat post_country_iso post_country
##    <chr>            <chr>           <dbl>    <dbl> <chr>            <chr>       
##  1 AUS              Australia      134.     -25.3  IND              India       
##  2 AUT              Austria         14.6     47.5  IND              India       
##  3 BGD              Bangladesh      90.4     23.7  IND              India       
##  4 BEL              Belgium          4.47    50.5  IND              India       
##  5 BTN              Bhutan          90.4     27.5  IND              India       
##  6 BRN              Brunei Daru   115.       4.54 IND              India       
##  7 KHM              Cambodia       105.      12.6  IND              India       
##  8 CAN              Canada        -106.      56.1  IND              India       
##  9 CHL              Chile          -71.5    -35.7  IND              India       
## 10 CHN              China          104.      35.9  IND              India       
## #  with 37 more rows, and 9 more variables: post_city_country <chr>,
## #   post_city <chr>, post_city_lon <dbl>, post_city_lat <dbl>, post_type <chr>,
## #   post_title <chr>, full_geo_query <chr>, exact_post_lon <dbl>,
## #   latexact_post_lat <dbl>
…
